<?xml version="1.0" encoding="UTF-8"?>
<con:restMockAction name="/api/unknown" method="GET" resourcePath="/api/unknown" id="d0041853-627f-4a97-b9c0-e57a5f3bf511" xmlns:con="http://eviware.com/soapui/config">
  <con:settings>
    <con:setting id="d0041853-627f-4a97-b9c0-e57a5f3bf511fileName">%2Fapi%2Funknown</con:setting>
  </con:settings>
  <con:defaultResponse xsi:nil="true" xmlns:xsi="http://www.w3.org/2001/XMLSchema-instance"/>
  <con:dispatchStyle>RANDOM</con:dispatchStyle>
  <con:dispatchConfig/>
  <con:dispatchXPath/>
  <con:parameterDispatcherRuleContainer/>
  <con:routeScript/>
  <con:response name="Success" id="a95927c0-49c4-4fc6-b2ba-6c582b1670db" httpResponseStatus="200" compressedBodyContent="aced00057372002f636f6d2e657669776172652e736f617075692e696d706c2e737570706f72742e436f6d7072657373656456616c7565000b8b02c748eeab0200035a000a636f6d707265737365644c000b636f6d7072657373696f6e74003d4c636f6d2f657669776172652f736f617075692f696d706c2f737570706f72742f436f6d7072657373656456616c756524436f6d7072657373696f6e3b5b0004646174617400025b427870007e72003b636f6d2e657669776172652e736f617075692e696d706c2e737570706f72742e436f6d7072657373656456616c756524436f6d7072657373696f6e00000000000000001200007872000e6a6176612e6c616e672e456e756d000000000000000012000078707400044e4f4e4570" mediaType="application/json" encoding="utf-8" dataSource="">
    <con:settings/>
    <con:responseContent>{
   "page":1,
   "per_page":6,
   "total":12,
   "total_pages":2,
   "data":[
      {
         "id":1,
         "name":"cerulean",
         "year":2000,
         "color":"#98B2D1",
         "pantone_value":"15-4020"
      },
      {
         "id":2,
         "name":"fuchsia rose",
         "year":2001,
         "color":"#C74375",
         "pantone_value":"17-2031"
      },
      {
         "id":3,
         "name":"true red",
         "year":2002,
         "color":"#BF1932",
         "pantone_value":"19-1664"
      },
      {
         "id":4,
         "name":"aqua sky",
         "year":2003,
         "color":"#7BC4C4",
         "pantone_value":"14-4811"
      },
      {
         "id":5,
         "name":"tigerlily",
         "year":2004,
         "color":"#E2583E",
         "pantone_value":"17-1456"
      },
      {
         "id":6,
         "name":"blue turquoise",
         "year":2005,
         "color":"#53B0AE",
         "pantone_value":"15-5217"
      }
   ],
   "support":{
      "url":"https://reqres.in/#support-heading",
      "text":"To keep ReqRes free, contributions towards server costs are appreciated!"
   }
}</con:responseContent>
    <con:header>
      <con:name>Server</con:name>
      <con:value>cloudflare</con:value>
    </con:header>
    <con:header>
      <con:name>CF-RAY</con:name>
      <con:value>7ab68f715ea92e38-BOM</con:value>
    </con:header>
    <con:header>
      <con:name>Access-Control-Allow-Origin</con:name>
      <con:value>*</con:value>
    </con:header>
    <con:header>
      <con:name>Connection</con:name>
      <con:value>keep-alive</con:value>
    </con:header>
    <con:header>
      <con:name>Date</con:name>
      <con:value>Tue, 21 Mar 2023 13:32:20 GMT</con:value>
    </con:header>
    <con:header>
      <con:name>Via</con:name>
      <con:value>1.1 vegur</con:value>
    </con:header>
    <con:header>
      <con:name>Accept-Ranges</con:name>
      <con:value>bytes</con:value>
    </con:header>
    <con:header>
      <con:name>CF-Cache-Status</con:name>
      <con:value>HIT</con:value>
    </con:header>
    <con:header>
      <con:name>Etag</con:name>
      <con:value>W/"2c1-N6Rqerxquq2kgQhL51EiSg4x0R8"</con:value>
    </con:header>
    <con:header>
      <con:name>Cache-Control</con:name>
      <con:value>max-age=14400</con:value>
    </con:header>
    <con:header>
      <con:name>NEL</con:name>
      <con:value>{"success_fraction":0,"report_to":"cf-nel","max_age":604800}</con:value>
    </con:header>
    <con:header>
      <con:name>Report-To</con:name>
      <con:value>{"endpoints":[{"url":"https:\/\/a.nel.cloudflare.com\/report\/v3?s=hJe9t%2FKLDfL0bwzn0wBb3I5%2BPd039%2FmMcLeHQCmO4Djy4ijeTe%2F0dDSLHM5UI%2F3PdBlz5QQjEQDO1AtvExkOpB1wMXOnQGBdLzwvYf5wruvLJfzbbRO7sHJYXg%3D%3D"}],"group":"cf-nel","max_age":604800}</con:value>
    </con:header>
    <con:header>
      <con:name>Age</con:name>
      <con:value>3555</con:value>
    </con:header>
    <con:header>
      <con:name>X-Powered-By</con:name>
      <con:value>Express</con:value>
    </con:header>
  </con:response>
  <con:response name="Error" id="36eed550-c49a-44f4-a94c-e984c99a793b" httpResponseStatus="404" compressedBodyContent="aced00057372002f636f6d2e657669776172652e736f617075692e696d706c2e737570706f72742e436f6d7072657373656456616c7565000b8b02c748eeab0200035a000a636f6d707265737365644c000b636f6d7072657373696f6e74003d4c636f6d2f657669776172652f736f617075692f696d706c2f737570706f72742f436f6d7072657373656456616c756524436f6d7072657373696f6e3b5b0004646174617400025b427870007e72003b636f6d2e657669776172652e736f617075692e696d706c2e737570706f72742e436f6d7072657373656456616c756524436f6d7072657373696f6e00000000000000001200007872000e6a6176612e6c616e672e456e756d000000000000000012000078707400044e4f4e4570" mediaType="application/json" dataSource="">
    <con:settings/>
    <con:responseContent>Resouse not found</con:responseContent>
  </con:response>
</con:restMockAction>
